%YAML 1.1
%TAG !u! tag:unity3d.com,2011:
--- !u!1045 &1
EditorBuildSettings:
  m_ObjectHideFlags: 0
  serializedVersion: 2
  m_Scenes:
  - enabled: 1
    path: Assets/Scenes/SampleScene.unity
    guid: 9fc0d4010bbf28b4594072e72b8655ab
  m_configObjects:
    UnityEditor.XR.ARKit.ARKitSettings: {fileID: 11400000, guid: 82001199e41c34f7bbe64d30ac6ae024, type: 2}
    com.unity.xr.arfoundation.simulation_settings: {fileID: 11400000, guid: 434815e5432524725a338556460fd748, type: 2}
    com.unity.xr.management.loader_settings: {fileID: 11400000, guid: 166f1ea6351214d8e81bc47071b4e3bd, type: 2}
